EDA
…
## # A tibble: 3 x 10
##       X1     id title publication author date        year month url  
##    <int>  <int> <chr> <chr>       <chr>  <date>     <dbl> <dbl> <chr>
## 1 104653 153464 Prem Guardian    Paul  2016-12-09  2016    12 http
## 2 104877 153765 Prem Guardian    Jacob 2016-09-30  2016     9 http
## 3 105199 154191 Prem Guardian    Paul  2016-11-04  2016    11 http
## # ... with 1 more variable: content <chr>

# articles are different despit having same title

dups <- articles3[duplicated(articles3$title) | duplicated(articles3$title, fromLast = T),] 
dups[order(dups$title),] # some content is the same, some different

## # A tibble: 32 x 10
##        X1     id title publication author date        year month url  
##     <int>  <int> <chr> <chr>       <chr>  <date>     <dbl> <dbl> <chr>
##  1 130048 195554 Gold Vox         Alex  NA          2017     1 http
##  2 134733 203663 Gold Vox         Alex  NA          2016    12 http
##  3 110122 164219 Heav NPR         <NA>   2017-04-29  2017     4 http
##  4 114899 169957 Heav NPR         <NA>   2016-06-14  2016     6 http
##  5 115646 170895 Heav NPR         <NA>   2016-07-20  2016     7 http
##  6 117127 172743 Heav NPR         <NA>   2016-09-24  2016     9 http
##  7 117931 173717 Heav NPR         <NA>   2016-10-29  2016    10 http
##  8 118681 174670 Heav NPR         <NA>   2016-12-04  2016    12 http
##  9 137059 206686 Hunt Washington DeNee 2017-04-11  2017     4 "htt
## 10 137446 207179 Hunt Washington DeNee 2017-05-01  2017     5 "htt
## # ... with 22 more rows, and 1 more variable: content <chr>
…
articles3[articles3$publication=="Vox",]

## # A tibble: 4,947 x 10
##        X1     id title publication author date        year month url  
##     <int>  <int> <chr> <chr>       <chr>  <date>     <dbl> <dbl> <chr>
##  1 129972 195429 Why  Vox         Timot NA          2016    12 http
##  2 129973 195430 Pres Vox         Zeesh NA          2016    12 http
##  3 129974 195431 The  Vox         Jeff  NA          2016    12 http
##  4 129975 195432 A si Vox         Brad  NA          2016    12 http
##  5 129976 195433 I qu Vox         Emers NA          2016    12 http
##  6 129977 195434 At w Vox         Zacha NA          2016    12 http
##  7 129978 195435 In 2 Vox         Carol NA          2016    12 http
##  8 129979 195436 The  Vox         Yochi NA          2016    12 http
##  9 129980 195437 The  Vox         Zeesh NA          2016    12 http
## 10 129981 195438 9 qu Vox         Jenni NA          2016    12 http
## # ... with 4,937 more rows, and 1 more variable: content <chr>
…
